%YAML 1.1
%TAG !u! tag:unity3d.com,2011:
--- !u!1045 &1
EditorBuildSettings:
  m_ObjectHideFlags: 0
  serializedVersion: 2
  m_Scenes:
  - enabled: 0
    path: 
    guid: 00000000000000000000000000000000
  - enabled: 1
    path: Assets/Scenes/MainMenu.unity
    guid: e7415c6ac6fa4e24d8b035f802cda8c6
  - enabled: 1
    path: Assets/Scenes/Scene1.unity
    guid: 7d2e8c7b20c508e47a05260c7e93f7d2
  - enabled: 1
    path: Assets/Scenes/Credits.unity
    guid: 752fdf7460c2d5743855741be1aa091c
  m_configObjects: {}
