%YAML 1.1
%TAG !u! tag:unity3d.com,2011:
--- !u!1 &6861655114082994753
GameObject:
  m_ObjectHideFlags: 0
  m_CorrespondingSourceObject: {fileID: 0}
  m_PrefabInstance: {fileID: 0}
  m_PrefabAsset: {fileID: 0}
  serializedVersion: 6
  m_Component:
  - component: {fileID: 6861655114082994754}
  - component: {fileID: 6861655114082994757}
  - component: {fileID: 6861655114082994756}
  m_Layer: 0
  m_Name: LaserBulletBlue
  m_TagString: Untagged
  m_Icon: {fileID: 0}
  m_NavMeshLayer: 0
  m_StaticEditorFlags: 0
  m_IsActive: 1
--- !u!4 &6861655114082994754
Transform:
  m_ObjectHideFlags: 0
  m_CorrespondingSourceObject: {fileID: 0}
  m_PrefabInstance: {fileID: 0}
  m_PrefabAsset: {fileID: 0}
  m_GameObject: {fileID: 6861655114082994753}
  m_LocalRotation: {x: 0, y: 0, z: 0, w: 1}
  m_LocalPosition: {x: 0, y: 0, z: 0}
  m_LocalScale: {x: 1, y: 1, z: 1}
  m_Children:
  - {fileID: 6861655113759465281}
  m_Father: {fileID: 0}
  m_RootOrder: 0
  m_LocalEulerAnglesHint: {x: 0, y: 0, z: 0}
--- !u!61 &6861655114082994757
BoxCollider2D:
  m_ObjectHideFlags: 0
  m_CorrespondingSourceObject: {fileID: 0}
  m_PrefabInstance: {fileID: 0}
  m_PrefabAsset: {fileID: 0}
  m_GameObject: {fileID: 6861655114082994753}
  m_Enabled: 0
  m_Density: 1
  m_Material: {fileID: 0}
  m_IsTrigger: 1
  m_UsedByEffector: 0
  m_UsedByComposite: 0
  m_Offset: {x: 0.0032742321, y: -0.00230968}
  m_SpriteTilingProperty:
    border: {x: 0, y: 0, z: 0, w: 0}
    pivot: {x: 0, y: 0}
    oldSize: {x: 0, y: 0}
    newSize: {x: 0, y: 0}
    adaptiveTilingThreshold: 0
    drawMode: 0
    adaptiveTiling: 0
  m_AutoTiling: 0
  serializedVersion: 2
  m_Size: {x: 0.59087914, y: 0.08121991}
  m_EdgeRadius: 0
--- !u!50 &6861655114082994756
Rigidbody2D:
  serializedVersion: 4
  m_ObjectHideFlags: 0
  m_CorrespondingSourceObject: {fileID: 0}
  m_PrefabInstance: {fileID: 0}
  m_PrefabAsset: {fileID: 0}
  m_GameObject: {fileID: 6861655114082994753}
  m_BodyType: 0
  m_Simulated: 1
  m_UseFullKinematicContacts: 0
  m_UseAutoMass: 0
  m_Mass: 1
  m_LinearDrag: 0
  m_AngularDrag: 0.05
  m_GravityScale: 0
  m_Material: {fileID: 0}
  m_Interpolate: 0
  m_SleepingMode: 1
  m_CollisionDetection: 0
  m_Constraints: 0
--- !u!1001 &6150363897531051180
PrefabInstance:
  m_ObjectHideFlags: 0
  serializedVersion: 2
  m_Modification:
    m_TransformParent: {fileID: 6861655114082994754}
    m_Modifications:
    - target: {fileID: 748448115032962028, guid: fbd27d869ae28004586360b82c2d4a49,
        type: 3}
      propertyPath: m_Name
      value: LaserGraphic
      objectReference: {fileID: 0}
    - target: {fileID: 748448115032962029, guid: fbd27d869ae28004586360b82c2d4a49,
        type: 3}
      propertyPath: m_LocalPosition.x
      value: 0
      objectReference: {fileID: 0}
    - target: {fileID: 748448115032962029, guid: fbd27d869ae28004586360b82c2d4a49,
        type: 3}
      propertyPath: m_LocalPosition.y
      value: 0
      objectReference: {fileID: 0}
    - target: {fileID: 748448115032962029, guid: fbd27d869ae28004586360b82c2d4a49,
        type: 3}
      propertyPath: m_LocalPosition.z
      value: 0
      objectReference: {fileID: 0}
    - target: {fileID: 748448115032962029, guid: fbd27d869ae28004586360b82c2d4a49,
        type: 3}
      propertyPath: m_LocalRotation.x
      value: -0
      objectReference: {fileID: 0}
    - target: {fileID: 748448115032962029, guid: fbd27d869ae28004586360b82c2d4a49,
        type: 3}
      propertyPath: m_LocalRotation.y
      value: -0
      objectReference: {fileID: 0}
    - target: {fileID: 748448115032962029, guid: fbd27d869ae28004586360b82c2d4a49,
        type: 3}
      propertyPath: m_LocalRotation.z
      value: -0.7071068
      objectReference: {fileID: 0}
    - target: {fileID: 748448115032962029, guid: fbd27d869ae28004586360b82c2d4a49,
        type: 3}
      propertyPath: m_LocalRotation.w
      value: 0.7071068
      objectReference: {fileID: 0}
    - target: {fileID: 748448115032962029, guid: fbd27d869ae28004586360b82c2d4a49,
        type: 3}
      propertyPath: m_RootOrder
      value: 0
      objectReference: {fileID: 0}
    - target: {fileID: 748448115032962029, guid: fbd27d869ae28004586360b82c2d4a49,
        type: 3}
      propertyPath: m_LocalEulerAnglesHint.x
      value: 0
      objectReference: {fileID: 0}
    - target: {fileID: 748448115032962029, guid: fbd27d869ae28004586360b82c2d4a49,
        type: 3}
      propertyPath: m_LocalEulerAnglesHint.y
      value: 0
      objectReference: {fileID: 0}
    - target: {fileID: 748448115032962029, guid: fbd27d869ae28004586360b82c2d4a49,
        type: 3}
      propertyPath: m_LocalEulerAnglesHint.z
      value: -90
      objectReference: {fileID: 0}
    - target: {fileID: 9220416127277451431, guid: fbd27d869ae28004586360b82c2d4a49,
        type: 3}
      propertyPath: sinWave
      value: 0
      objectReference: {fileID: 0}
    - target: {fileID: 9220416127277451431, guid: fbd27d869ae28004586360b82c2d4a49,
        type: 3}
      propertyPath: binaryWave
      value: 0
      objectReference: {fileID: 0}
    - target: {fileID: 9220416127277451431, guid: fbd27d869ae28004586360b82c2d4a49,
        type: 3}
      propertyPath: cordinated
      value: 0
      objectReference: {fileID: 0}
    m_RemovedComponents: []
  m_SourcePrefab: {fileID: 100100000, guid: fbd27d869ae28004586360b82c2d4a49, type: 3}
--- !u!4 &6861655113759465281 stripped
Transform:
  m_CorrespondingSourceObject: {fileID: 748448115032962029, guid: fbd27d869ae28004586360b82c2d4a49,
    type: 3}
  m_PrefabInstance: {fileID: 6150363897531051180}
  m_PrefabAsset: {fileID: 0}
